{
    "id": 180,
    "results": [
        {
            "proteinID": "P01139",
            "sequence": "MSMLFYTLITAFLIGVQAEPYTDSNVPEGDSVPEAHWTKLQHSLDTALRRARSAPTAPIAARVTGQTRNITVDPRLFKKRRLHSPRVLFSTQPPPTSSDTLDLDFQAHGTIPFNRTHRSKRSSTHPVFHMGEFSVCDSVSVWVGDKTTATDIKGKEVTVLAEVNINNSVFRQYFFETKCRASNPVESGCRGIDSKHWNSYCTTTHTFVKALTTDEKQAAWRFIRIDTACVCVLSRKATRRG",
            "disomine": [
                0.4611470401287079,
                0.4550575315952301,
                0.44496092200279236,
                0.4374905228614807,
                0.4316856563091278,
                0.42576050758361816,
                0.4231315851211548,
                0.4218847453594208,
                0.4213086664676666,
                0.42093008756637573,
                0.42088818550109863,
                0.4200175702571869,
                0.4187070429325104,
                0.4188957214355469,
                0.4201723337173462,
                0.42240241169929504,
                0.4264701306819916,
                0.4284214675426483,
                0.4282390773296356,
                0.4279610216617584,
                0.42884841561317444,
                0.42943933606147766,
                0.4303057789802551,
                0.43087539076805115,
                0.4331549108028412,
                0.43553319573402405,
                0.43696993589401245,
                0.4384554624557495,
                0.4377286732196808,
                0.437998503446579,
                0.4407491385936737,
                0.4448014199733734,
                0.4442405700683594,
                0.44127538800239563,
                0.43750423192977905,
                0.4351803660392761,
                0.43167778849601746,
                0.43097350001335144,
                0.4311431348323822,
                0.43019282817840576,
                0.4302929639816284,
                0.43076449632644653,
                0.4308738112449646,
                0.4308643341064453,
                0.4308609366416931,
                0.4305483102798462,
                0.4307903051376343,
                0.43107375502586365,
                0.4313674569129944,
                0.4298779368400574,
                0.426273375749588,
                0.4247133135795593,
                0.42584049701690674,
                0.4289208650588989,
                0.4328209161758423,
                0.4373767077922821,
                0.4431263506412506,
                0.4461790919303894,
                0.4427245259284973,
                0.43987664580345154,
                0.43409550189971924,
                0.42749977111816406,
                0.4236159324645996,
                0.42283642292022705,
                0.42553168535232544,
                0.42952412366867065,
                0.4321124255657196,
                0.43564876914024353,
                0.43712714314460754,
                0.43473732471466064,
                0.4317738711833954,
                0.43120628595352173,
                0.4307997226715088,
                0.42995598912239075,
                0.42881888151168823,
                0.4271576404571533,
                0.4238032102584839,
                0.42323964834213257,
                0.4240679144859314,
                0.42628273367881775,
                0.4289165437221527,
                0.4306912422180176,
                0.4338516294956207,
                0.43975508213043213,
                0.44370195269584656,
                0.44313642382621765,
                0.4410367012023926,
                0.4380614459514618,
                0.43032538890838623,
                0.4236923158168793,
                0.4216899275779724,
                0.4245533049106598,
                0.4291248321533203,
                0.4351446032524109,
                0.4381805956363678,
                0.43957364559173584,
                0.44075092673301697,
                0.441809743642807,
                0.44254815578460693,
                0.4412257969379425,
                0.4397408962249756,
                0.4393366575241089,
                0.4359021782875061,
                0.43448424339294434,
                0.43296435475349426,
                0.4302343726158142,
                0.4256080985069275,
                0.4240363538265228,
                0.42645078897476196,
                0.4253831207752228,
                0.42498117685317993,
                0.4268144965171814,
                0.42804059386253357,
                0.4303026795387268,
                0.43345603346824646,
                0.4344927966594696,
                0.43513989448547363,
                0.4360206723213196,
                0.4355716407299042,
                0.436398983001709,
                0.43638649582862854,
                0.435337632894516,
                0.43495309352874756,
                0.4361550211906433,
                0.4408358335494995,
                0.44380825757980347,
                0.43939492106437683,
                0.4359687864780426,
                0.4329740107059479,
                0.4307233989238739,
                0.4297877252101898,
                0.4314071238040924,
                0.43093010783195496,
                0.42828169465065,
                0.4238962233066559,
                0.4228818714618683,
                0.4263748526573181,
                0.42872631549835205,
                0.4311579465866089,
                0.43168169260025024,
                0.42800986766815186,
                0.42302024364471436,
                0.4180356562137604,
                0.4166349172592163,
                0.4190993905067444,
                0.42348265647888184,
                0.4280628561973572,
                0.42919740080833435,
                0.4287467300891876,
                0.42540794610977173,
                0.42291945219039917,
                0.42124390602111816,
                0.42348548769950867,
                0.4303320050239563,
                0.43427935242652893,
                0.43406394124031067,
                0.43397602438926697,
                0.43160271644592285,
                0.4288094937801361,
                0.427040159702301,
                0.4259190261363983,
                0.4255090653896332,
                0.4215335547924042,
                0.41590213775634766,
                0.41531622409820557,
                0.4192641079425812,
                0.4232182502746582,
                0.4276863634586334,
                0.42800042033195496,
                0.42435166239738464,
                0.4204282760620117,
                0.42049601674079895,
                0.42230239510536194,
                0.4244418740272522,
                0.4256647825241089,
                0.4253387749195099,
                0.42250582575798035,
                0.42023956775665283,
                0.4177245795726776,
                0.4183262288570404,
                0.4201139807701111,
                0.42399877309799194,
                0.42840537428855896,
                0.4321928322315216,
                0.4331659972667694,
                0.43250131607055664,
                0.43160581588745117,
                0.43305984139442444,
                0.43288758397102356,
                0.43250104784965515,
                0.4324323534965515,
                0.4325005114078522,
                0.4337771534919739,
                0.434146523475647,
                0.43531864881515503,
                0.4346235394477844,
                0.4314744174480438,
                0.42937225103378296,
                0.42803964018821716,
                0.4265787601470947,
                0.4267672896385193,
                0.42804619669914246,
                0.42825374007225037,
                0.42709335684776306,
                0.4260720908641815,
                0.4244246780872345,
                0.42294925451278687,
                0.4223877489566803,
                0.42119964957237244,
                0.41884008049964905,
                0.4198409914970398,
                0.4238794445991516,
                0.42878028750419617,
                0.4312029182910919,
                0.43186527490615845,
                0.42901933193206787,
                0.42514553666114807,
                0.4220666289329529,
                0.4215194582939148,
                0.42220190167427063,
                0.42363691329956055,
                0.4241372346878052,
                0.42566385865211487,
                0.42477405071258545,
                0.42204034328460693,
                0.42138347029685974,
                0.42052996158599854,
                0.4204360842704773,
                0.41984832286834717,
                0.4191220998764038,
                0.4181780517101288,
                0.41767317056655884,
                0.4179939925670624,
                0.42007529735565186,
                0.42265602946281433,
                0.424938440322876,
                0.42706039547920227,
                0.42820286750793457,
                0.4389854371547699,
                0.4505293667316437,
                0.45460745692253113
            ],
            "backbone": [
                0.5718999999999997,
                0.5505000000000001,
                0.5814500000000001,
                0.6593499999999998,
                0.6594500000000002,
                0.6504499999999999,
                0.6458499999999999,
                0.6609499999999999,
                0.6876500000000003,
                0.6678500000000002,
                0.6360499999999998,
                0.6470500000000001,
                0.6336499999999998,
                0.6333,
                0.49970000000000003,
                0.6127000000000001,
                0.40680000000000005,
                0.5773000000000001,
                0.33399999999999996,
                0.5467499999999998,
                0.57255,
                0.54015,
                0.34115,
                0.50795,
                0.49084999999999995,
                0.5743000000000001,
                0.4952999999999998,
                0.27209999999999995,
                0.4458000000000001,
                0.2991000000000001,
                0.46970000000000006,
                0.5563999999999999,
                0.5106999999999998,
                0.29060000000000014,
                0.5587999999999999,
                0.5589999999999998,
                0.6149999999999999,
                0.5643999999999998,
                0.3469999999999999,
                0.5761,
                0.4183,
                0.5236999999999999,
                0.5143000000000001,
                0.5693999999999999,
                0.3327,
                0.5310999999999997,
                0.5252,
                0.5412999999999999,
                0.3265000000000001,
                0.3410000000000001,
                0.5421999999999999,
                0.34559999999999996,
                0.49110000000000004,
                0.543,
                0.504,
                0.5101000000000002,
                0.549,
                0.48639999999999983,
                0.5745000000000001,
                0.5251000000000001,
                0.5440999999999999,
                0.33280000000000004,
                0.5442000000000001,
                0.5114,
                0.46460000000000007,
                0.35960000000000003,
                0.5421000000000001,
                0.32020000000000004,
                0.45699999999999996,
                0.5805999999999998,
                0.5442,
                0.5664999999999999,
                0.34990000000000004,
                0.5594999999999999,
                0.3412000000000001,
                0.5773999999999999,
                0.5638999999999996,
                0.3609000000000001,
                0.36430000000000007,
                0.35400000000000004,
                0.3422999999999999,
                0.5573,
                0.5100000000000001,
                0.5284,
                0.5534,
                0.3039000000000002,
                0.5455999999999998,
                0.5712,
                0.5599999999999998,
                0.5029,
                0.5111,
                0.3076,
                0.4857999999999999,
                0.47919999999999996,
                0.4572000000000001,
                0.48710000000000014,
                0.46519999999999995,
                0.4483999999999998,
                0.2786,
                0.4757,
                0.5328000000000002,
                0.2792,
                0.5532,
                0.31470000000000004,
                0.5832999999999999,
                0.36800000000000005,
                0.5736000000000001,
                0.5265000000000003,
                0.4997,
                0.5285999999999997,
                0.6091,
                0.5408999999999999,
                0.5450000000000002,
                0.48880000000000007,
                0.35119999999999996,
                0.5325000000000002,
                0.5458000000000001,
                0.3051,
                0.5218,
                0.32420000000000004,
                0.3058000000000002,
                0.4699000000000001,
                0.5123000000000001,
                0.5367000000000001,
                0.5455999999999999,
                0.5354,
                0.5660999999999998,
                0.5814,
                0.5632999999999998,
                0.5455000000000001,
                0.5064999999999998,
                0.3334000000000001,
                0.6005999999999999,
                0.5516000000000001,
                0.5818000000000001,
                0.6392000000000001,
                0.3888999999999999,
                0.5392,
                0.6365999999999999,
                0.5608000000000001,
                0.6275,
                0.6386,
                0.6131,
                0.5138,
                0.36170000000000013,
                0.41200000000000003,
                0.6017,
                0.5571999999999999,
                0.5970000000000001,
                0.5773999999999998,
                0.35450000000000015,
                0.6269999999999999,
                0.3795000000000001,
                0.5255,
                0.38000000000000006,
                0.36750000000000005,
                0.6697000000000002,
                0.6144999999999999,
                0.6477999999999999,
                0.6577000000000001,
                0.6415000000000001,
                0.36839999999999995,
                0.6264000000000002,
                0.5527000000000001,
                0.6543,
                0.5685000000000001,
                0.5750000000000001,
                0.5587999999999999,
                0.6286999999999999,
                0.6462000000000001,
                0.4597000000000001,
                0.5063000000000002,
                0.6937999999999996,
                0.7110999999999998,
                0.6715999999999998,
                0.39259999999999995,
                0.6332000000000001,
                0.41400000000000003,
                0.6612,
                0.3520000000000001,
                0.5731999999999999,
                0.5246,
                0.5345000000000001,
                0.5570999999999999,
                0.5835000000000002,
                0.3476000000000001,
                0.5059000000000001,
                0.5286999999999997,
                0.6519,
                0.3823,
                0.5027000000000001,
                0.6122000000000001,
                0.3479,
                0.5503999999999998,
                0.4122,
                0.5897999999999997,
                0.6737000000000001,
                0.5603999999999999,
                0.5536,
                0.5927000000000001,
                0.6805999999999998,
                0.5964999999999999,
                0.5866000000000001,
                0.6256999999999997,
                0.6162999999999996,
                0.6313999999999999,
                0.6425000000000001,
                0.6234999999999998,
                0.43129999999999996,
                0.6543000000000003,
                0.6588000000000002,
                0.6574999999999999,
                0.5865000000000001,
                0.3583,
                0.3274000000000001,
                0.3908,
                0.4309,
                0.6316499999999999,
                0.64145,
                0.7083499999999998,
                0.47639999999999993,
                0.6800999999999998,
                0.7082999999999996,
                0.4777000000000001,
                0.6541999999999999,
                0.43310000000000004,
                0.6237999999999998,
                0.6287999999999998,
                0.6824,
                0.6346999999999999,
                0.6630999999999997,
                0.6146999999999997,
                0.6435,
                0.5822999999999999,
                0.39525000000000005,
                0.38505000000000006,
                0.5879499999999999,
                0.5624499999999998,
                0.33135,
                0.3319500000000001,
                0.47105
            ],
            "efoldmine": [
                0.017104553665029137,
                0.03646694568491895,
                0.14354955343552978,
                0.2077271268737427,
                0.2645284574137873,
                0.3170667931646972,
                0.3751867520693557,
                0.3695929908127159,
                0.370368746727202,
                0.3749056849904831,
                0.3288683289001318,
                0.3180387618354317,
                0.2853254455859971,
                0.22894727071000084,
                0.12736100102135375,
                0.09433976513472615,
                0.06018322553892136,
                0.05235674396065352,
                0.028916310875192485,
                0.02916517864470889,
                0.05184332799196567,
                0.02972937253172404,
                0.015371074545347016,
                0.019172328915629304,
                0.02509746986552179,
                0.024707824566518825,
                0.013589598410180375,
                0.0048008604708280386,
                0.005286808821319574,
                0.004300518562664144,
                0.005498754413448017,
                0.011877494160551812,
                0.00973580980647389,
                0.006049738091891286,
                0.00895485807951038,
                0.023741331961276892,
                0.05394108199778328,
                0.06389286810810028,
                0.043023403342956734,
                0.038454703445816044,
                0.02609387717966399,
                0.02820495667778319,
                0.03530180501891634,
                0.03285757047869644,
                0.02506827206820674,
                0.039075126623607,
                0.07637404003757,
                0.09427289336475489,
                0.05714855643046182,
                0.037111949619598995,
                0.031104180029699596,
                0.013308509433971983,
                0.009454223192083533,
                0.009621734958478394,
                0.005504080750578863,
                0.005854120963082339,
                0.007021494297012236,
                0.00981887492546054,
                0.017608442307659313,
                0.033302228740409376,
                0.04736341240128524,
                0.03327135759237938,
                0.024939969773773392,
                0.024400784161408964,
                0.016317535027148534,
                0.01583319404605806,
                0.02185721334326279,
                0.01750306389028026,
                0.02149094163724626,
                0.048210753470666584,
                0.0598328793130835,
                0.052925651572947485,
                0.036045923391077525,
                0.02713360214762708,
                0.02373392750080446,
                0.044149284606406644,
                0.09256332855872669,
                0.079259433417257,
                0.06826556141026262,
                0.053194041006788,
                0.022243622193539928,
                0.018421332975563063,
                0.022098169318077225,
                0.031839355621728425,
                0.04058658714867948,
                0.033572321607206496,
                0.07262975009128614,
                0.11301232435279497,
                0.052106447699979505,
                0.020902624115173626,
                0.014591534063622633,
                0.006331563306194753,
                0.0072196965320730526,
                0.006232689173796937,
                0.0024245874520714013,
                0.002471854929144037,
                0.003548083571356706,
                0.0036346769732342986,
                0.0036906513059477824,
                0.009191507917614245,
                0.017737535754149877,
                0.018123463845686083,
                0.029795336878026633,
                0.03364976355307506,
                0.0471910204475671,
                0.03320274912695733,
                0.02499412451064471,
                0.02811504649292411,
                0.027351520674636615,
                0.046798140547942874,
                0.06006857628630021,
                0.03594699635953265,
                0.025246258821195654,
                0.016467847075915573,
                0.010643093187996961,
                0.021109625951096757,
                0.028701718661710982,
                0.018712575223836066,
                0.025505360662694397,
                0.01041755100173602,
                0.0039106589803265986,
                0.006363198754719679,
                0.009162876803447254,
                0.013246955683722587,
                0.022565495960667675,
                0.027711805912704356,
                0.042609789438396016,
                0.04569397831794404,
                0.04531754710751714,
                0.040912753310044986,
                0.037394103222188564,
                0.027419172620711422,
                0.054505620201009096,
                0.08638642144072728,
                0.09885417322222685,
                0.095297732887576,
                0.055141092176881366,
                0.06898831647574712,
                0.17630849672107668,
                0.20877067499095112,
                0.21612326800676793,
                0.18480595787109919,
                0.13494591399302855,
                0.06857711249030095,
                0.03148357692716852,
                0.02638938655820506,
                0.05444863651934312,
                0.06254272225364783,
                0.08174824916022964,
                0.09138282264809305,
                0.06429764032168832,
                0.07047081078960857,
                0.05503865215494022,
                0.05572980104978877,
                0.04959746349199288,
                0.07568155389213221,
                0.23989784176000337,
                0.41315565271799437,
                0.3981427100261059,
                0.38626633880564515,
                0.34956777346126683,
                0.2663115742585708,
                0.27760454363863707,
                0.17171118792173762,
                0.07630149662806741,
                0.053414258689438485,
                0.04920324057070845,
                0.07168717448031883,
                0.14976764466256787,
                0.22538421394895997,
                0.22706340549523638,
                0.25695543328030573,
                0.2985472510824692,
                0.3375622230492967,
                0.3010315516597386,
                0.1840350452950382,
                0.19868909515332067,
                0.18134603052640935,
                0.16092968803997407,
                0.05726190123683769,
                0.04332679722860111,
                0.03378914121072,
                0.023674501230414584,
                0.03214235796035096,
                0.03126211661955543,
                0.015542731661118725,
                0.021013730402998664,
                0.03883563591227042,
                0.04729068329543641,
                0.027318403679262034,
                0.02534373991163908,
                0.030495334242908522,
                0.01961916978590129,
                0.02384110116277182,
                0.0228083043947382,
                0.032186890470858306,
                0.049161077129239686,
                0.03206118589847805,
                0.03128073132256581,
                0.06382002339524613,
                0.09889316057670391,
                0.061349243053669705,
                0.03678143762494182,
                0.05861945795333793,
                0.12346428611944453,
                0.2397202872126802,
                0.3906208536430785,
                0.3644378868020025,
                0.23754752749170854,
                0.20801824774940317,
                0.1610070136159014,
                0.0895218819953609,
                0.05730616559097818,
                0.03208588977751534,
                0.03927796481425645,
                0.08736179344995801,
                0.1308056232398972,
                0.2058603564725124,
                0.34403416900646167,
                0.5,
                0.5953247129238545,
                0.6693829322536832,
                0.648996713105698,
                0.3987592188354606,
                0.24090154951586665,
                0.12270286045195267,
                0.131332327979728,
                0.2039339510741966,
                0.321741674813942,
                0.4052794983481872,
                0.4294988833607802,
                0.31554603027331973,
                0.24337952930412235,
                0.18211081797029693,
                0.09525178264214904,
                0.06406892160577879,
                0.07855816887263373,
                0.06138960011697749,
                0.01830839679675503,
                0.010419269986096016,
                0.02588048834372799
            ]
        },
        {
            "proteinID": "P67966",
            "sequence": "MPNWGGGKKCGVCQKAVYFAEEVQCEGSSFHKSCFLCMVCKKNLDSTTVAVHGDEIYCKSCYGKKYGPKGYGYGMGAGTLSTDKGESLGIKYEEGQSHRPTNPNASRMAQKVGGSDGCPRCGQAVYAAEKVIGAGKSWHKSCFRCAKCGKSLESTTLADKDGEIYCKGCYAKNFGPKGFGFGQGAGALIHSQ",
            "disomine": [
                0.46096116304397583,
                0.4629526138305664,
                0.455761581659317,
                0.449639230966568,
                0.4453570246696472,
                0.4427105188369751,
                0.44034913182258606,
                0.43775564432144165,
                0.4371722936630249,
                0.43531090021133423,
                0.4328365921974182,
                0.4308446943759918,
                0.42901667952537537,
                0.42852914333343506,
                0.4269879162311554,
                0.42598938941955566,
                0.4235261082649231,
                0.42148125171661377,
                0.42120543122291565,
                0.42054513096809387,
                0.42134320735931396,
                0.4204338788986206,
                0.4203774631023407,
                0.4219820499420166,
                0.422199010848999,
                0.4245551526546478,
                0.4267766773700714,
                0.4283931255340576,
                0.42986705899238586,
                0.42895886301994324,
                0.42740023136138916,
                0.426487535238266,
                0.4261725842952728,
                0.4263501465320587,
                0.42722272872924805,
                0.42453908920288086,
                0.420134961605072,
                0.4197482764720917,
                0.41974756121635437,
                0.41747236251831055,
                0.4164666533470154,
                0.41746705770492554,
                0.42005589604377747,
                0.42345285415649414,
                0.4267713725566864,
                0.43206411600112915,
                0.4372175335884094,
                0.4361606538295746,
                0.43620923161506653,
                0.4309200346469879,
                0.421612411737442,
                0.4160084128379822,
                0.4201323986053467,
                0.4264926016330719,
                0.4276638627052307,
                0.43033459782600403,
                0.4272781312465668,
                0.42037808895111084,
                0.4158746004104614,
                0.41228652000427246,
                0.41370734572410583,
                0.41856932640075684,
                0.4236506521701813,
                0.4265389144420624,
                0.42713817954063416,
                0.42675766348838806,
                0.42752715945243835,
                0.42831912636756897,
                0.4307209849357605,
                0.43255814909935,
                0.43428999185562134,
                0.43500736355781555,
                0.43317845463752747,
                0.4315972924232483,
                0.43145594000816345,
                0.4330102205276489,
                0.43401336669921875,
                0.43532219529151917,
                0.435041606426239,
                0.4306873679161072,
                0.42805707454681396,
                0.4275877773761749,
                0.42900320887565613,
                0.4316565990447998,
                0.43470102548599243,
                0.43504610657691956,
                0.43369191884994507,
                0.43563443422317505,
                0.4378352463245392,
                0.4348280131816864,
                0.432890921831131,
                0.42915934324264526,
                0.42700982093811035,
                0.4271133542060852,
                0.42897966504096985,
                0.4318975508213043,
                0.43346846103668213,
                0.4345329701900482,
                0.43622198700904846,
                0.43700945377349854,
                0.439612478017807,
                0.44384416937828064,
                0.44634950160980225,
                0.44607025384902954,
                0.44406378269195557,
                0.4395339787006378,
                0.436616986989975,
                0.4333403706550598,
                0.43251797556877136,
                0.4308607876300812,
                0.42754995822906494,
                0.4262757897377014,
                0.4286661744117737,
                0.4325837194919586,
                0.4358011484146118,
                0.4381948709487915,
                0.4391288459300995,
                0.4400780200958252,
                0.44041207432746887,
                0.440914124250412,
                0.439333975315094,
                0.43707481026649475,
                0.43418240547180176,
                0.4297711253166199,
                0.4266408085823059,
                0.42524245381355286,
                0.4252483546733856,
                0.4244472086429596,
                0.42461657524108887,
                0.4237748980522156,
                0.4225098192691803,
                0.4220980703830719,
                0.42336344718933105,
                0.4261093735694885,
                0.4312311112880707,
                0.4350220561027527,
                0.4368460178375244,
                0.43701082468032837,
                0.43252483010292053,
                0.42783278226852417,
                0.42415016889572144,
                0.42218151688575745,
                0.42256176471710205,
                0.4223554730415344,
                0.4207257330417633,
                0.4195862412452698,
                0.4203983247280121,
                0.42189690470695496,
                0.42710256576538086,
                0.43170836567878723,
                0.4339950978755951,
                0.4336339831352234,
                0.43063899874687195,
                0.4283895790576935,
                0.4289928078651428,
                0.4282856285572052,
                0.4258732795715332,
                0.4229370653629303,
                0.4222170412540436,
                0.42260947823524475,
                0.42662253975868225,
                0.4343487024307251,
                0.4381166994571686,
                0.4340118169784546,
                0.4303429424762726,
                0.4221944212913513,
                0.4171903729438782,
                0.41878780722618103,
                0.4228426516056061,
                0.4237714409828186,
                0.42209500074386597,
                0.42177632451057434,
                0.41971245408058167,
                0.4211757481098175,
                0.42513296008110046,
                0.4273693859577179,
                0.43066662549972534,
                0.4333403706550598,
                0.4343022108078003,
                0.4339911937713623,
                0.4329187572002411,
                0.43299341201782227,
                0.433728963136673,
                0.43476158380508423,
                0.4361424148082733,
                0.43601563572883606,
                0.43405842781066895,
                0.4311100244522095,
                0.4291612505912781,
                0.4375064969062805,
                0.4488474130630493,
                0.45323649048805237
            ],
            "backbone": [
                0.5388999999999998,
                0.5572999999999999,
                0.5323500000000001,
                0.6208499999999998,
                0.5022500000000001,
                0.49865000000000004,
                0.5050500000000001,
                0.43665,
                0.4093500000000002,
                0.6700500000000003,
                0.52465,
                0.6399500000000001,
                0.6900500000000003,
                0.4688000000000001,
                0.44799999999999995,
                0.6727000000000001,
                0.6764000000000002,
                0.6623999999999998,
                0.7122000000000002,
                0.6616499999999998,
                0.39925,
                0.38035,
                0.6440499999999999,
                0.43724999999999986,
                0.6507499999999998,
                0.3474999999999999,
                0.523,
                0.5736000000000001,
                0.5722,
                0.6175999999999999,
                0.6186,
                0.4123,
                0.6088999999999998,
                0.7295999999999998,
                0.6621999999999998,
                0.6781999999999998,
                0.6983999999999998,
                0.6022000000000001,
                0.6311,
                0.6930999999999999,
                0.43559999999999993,
                0.4003,
                0.5330000000000003,
                0.5872999999999998,
                0.3231999999999999,
                0.5810000000000002,
                0.6276,
                0.6233000000000001,
                0.6051,
                0.6242000000000003,
                0.6413999999999999,
                0.6070000000000001,
                0.5475000000000001,
                0.39390000000000003,
                0.38220000000000004,
                0.6703,
                0.6088,
                0.7254,
                0.4477,
                0.6185999999999998,
                0.7304,
                0.6108,
                0.5699000000000002,
                0.4253,
                0.43189999999999995,
                0.5961000000000001,
                0.5570999999999999,
                0.5885,
                0.3653,
                0.5498000000000001,
                0.5902000000000002,
                0.5412999999999999,
                0.5829000000000001,
                0.5062,
                0.5690000000000002,
                0.4985000000000001,
                0.5726,
                0.47390000000000004,
                0.5666999999999996,
                0.5869000000000001,
                0.5557000000000002,
                0.5875000000000001,
                0.34430000000000005,
                0.3623,
                0.4659999999999999,
                0.30600000000000005,
                0.4853000000000001,
                0.5699,
                0.4974999999999999,
                0.6221000000000001,
                0.38299999999999995,
                0.5800999999999998,
                0.3273000000000001,
                0.2822,
                0.4863999999999999,
                0.3687,
                0.4864999999999999,
                0.5408,
                0.3119000000000001,
                0.4841999999999999,
                0.49560000000000004,
                0.472,
                0.49160000000000004,
                0.4286000000000002,
                0.5504000000000001,
                0.4528,
                0.2958999999999999,
                0.48979999999999985,
                0.5561000000000004,
                0.369,
                0.35740000000000005,
                0.5365999999999999,
                0.46399999999999997,
                0.4842,
                0.4864,
                0.3131999999999999,
                0.4791000000000001,
                0.6315,
                0.5354000000000002,
                0.36639999999999995,
                0.6535000000000003,
                0.5249000000000001,
                0.40909999999999996,
                0.6401,
                0.6533000000000002,
                0.6154999999999999,
                0.6560000000000002,
                0.6402999999999996,
                0.37570000000000003,
                0.436,
                0.6009000000000001,
                0.6235000000000002,
                0.4963,
                0.5678000000000001,
                0.5106000000000002,
                0.4162000000000001,
                0.5345,
                0.6579,
                0.6326999999999999,
                0.3897,
                0.6184999999999998,
                0.7607999999999997,
                0.6428,
                0.43419999999999986,
                0.6619000000000002,
                0.6231000000000001,
                0.3998000000000001,
                0.6329999999999999,
                0.5331,
                0.3957000000000001,
                0.5548000000000003,
                0.6066999999999999,
                0.32899999999999996,
                0.5751000000000001,
                0.6298999999999999,
                0.6127,
                0.6073999999999998,
                0.5771000000000004,
                0.3544999999999998,
                0.3757,
                0.3410999999999999,
                0.5430000000000001,
                0.38189999999999996,
                0.652,
                0.6358,
                0.7243999999999998,
                0.44670000000000004,
                0.5704999999999999,
                0.70945,
                0.63385,
                0.6413499999999999,
                0.41359999999999997,
                0.5598999999999998,
                0.6037,
                0.5451999999999999,
                0.5765,
                0.38780000000000003,
                0.5533999999999999,
                0.6078999999999999,
                0.5363999999999999,
                0.6074999999999999,
                0.5178999999999998,
                0.40789999999999993,
                0.47810000000000014,
                0.5639,
                0.46705,
                0.5874499999999999,
                0.5882499999999998,
                0.64835,
                0.5901499999999998,
                0.5532499999999998,
                0.42175
            ],
            "sidechain": [
                0.5388999999999998,
                0.5572999999999999,
                0.5323500000000001,
                0.6208499999999998,
                0.5022500000000001,
                0.49865000000000004,
                0.5050500000000001,
                0.43665,
                0.4093500000000002,
                0.6700500000000003,
                0.52465,
                0.6399500000000001,
                0.6900500000000003,
                0.4688000000000001,
                0.44799999999999995,
                0.6727000000000001,
                0.6764000000000002,
                0.6623999999999998,
                0.7122000000000002,
                0.6616499999999998,
                0.39925,
                0.38035,
                0.6440499999999999,
                0.43724999999999986,
                0.6507499999999998,
                0.3474999999999999,
                0.523,
                0.5736000000000001,
                0.5722,
                0.6175999999999999,
                0.6186,
                0.4123,
                0.6088999999999998,
                0.7295999999999998,
                0.6621999999999998,
                0.6781999999999998,
                0.6983999999999998,
                0.6022000000000001,
                0.6311,
                0.6930999999999999,
                0.43559999999999993,
                0.4003,
                0.5330000000000003,
                0.5872999999999998,
                0.3231999999999999,
                0.5810000000000002,
                0.6276,
                0.6233000000000001,
                0.6051,
                0.6242000000000003,
                0.6413999999999999,
                0.6070000000000001,
                0.5475000000000001,
                0.39390000000000003,
                0.38220000000000004,
                0.6703,
                0.6088,
                0.7254,
                0.4477,
                0.6185999999999998,
                0.7304,
                0.6108,
                0.5699000000000002,
                0.4253,
                0.43189999999999995,
                0.5961000000000001,
                0.5570999999999999,
                0.5885,
                0.3653,
                0.5498000000000001,
                0.5902000000000002,
                0.5412999999999999,
                0.5829000000000001,
                0.5062,
                0.5690000000000002,
                0.4985000000000001,
                0.5726,
                0.47390000000000004,
                0.5666999999999996,
                0.5869000000000001,
                0.5557000000000002,
                0.5875000000000001,
                0.34430000000000005,
                0.3623,
                0.4659999999999999,
                0.30600000000000005,
                0.4853000000000001,
                0.5699,
                0.4974999999999999,
                0.6221000000000001,
                0.38299999999999995,
                0.5800999999999998,
                0.3273000000000001,
                0.2822,
                0.4863999999999999,
                0.3687,
                0.4864999999999999,
                0.5408,
                0.3119000000000001,
                0.4841999999999999,
                0.49560000000000004,
                0.472,
                0.49160000000000004,
                0.4286000000000002,
                0.5504000000000001,
                0.4528,
                0.2958999999999999,
                0.48979999999999985,
                0.5561000000000004,
                0.369,
                0.35740000000000005,
                0.5365999999999999,
                0.46399999999999997,
                0.4842,
                0.4864,
                0.3131999999999999,
                0.4791000000000001,
                0.6315,
                0.5354000000000002,
                0.36639999999999995,
                0.6535000000000003,
                0.5249000000000001,
                0.40909999999999996,
                0.6401,
                0.6533000000000002,
                0.6154999999999999,
                0.6560000000000002,
                0.6402999999999996,
                0.37570000000000003,
                0.436,
                0.6009000000000001,
                0.6235000000000002,
                0.4963,
                0.5678000000000001,
                0.5106000000000002,
                0.4162000000000001,
                0.5345,
                0.6579,
                0.6326999999999999,
                0.3897,
                0.6184999999999998,
                0.7607999999999997,
                0.6428,
                0.43419999999999986,
                0.6619000000000002,
                0.6231000000000001,
                0.3998000000000001,
                0.6329999999999999,
                0.5331,
                0.3957000000000001,
                0.5548000000000003,
                0.6066999999999999,
                0.32899999999999996,
                0.5751000000000001,
                0.6298999999999999,
                0.6127,
                0.6073999999999998,
                0.5771000000000004,
                0.3544999999999998,
                0.3757,
                0.3410999999999999,
                0.5430000000000001,
                0.38189999999999996,
                0.652,
                0.6358,
                0.7243999999999998,
                0.44670000000000004,
                0.5704999999999999,
                0.70945,
                0.63385,
                0.6413499999999999,
                0.41359999999999997,
                0.5598999999999998,
                0.6037,
                0.5451999999999999,
                0.5765,
                0.38780000000000003,
                0.5533999999999999,
                0.6078999999999999,
                0.5363999999999999,
                0.6074999999999999,
                0.5178999999999998,
                0.40789999999999993,
                0.47810000000000014,
                0.5639,
                0.46705,
                0.5874499999999999,
                0.5882499999999998,
                0.64835,
                0.5901499999999998,
                0.5532499999999998,
                0.42175
            ],
            "efoldmine": [
                0.04655453391163864,
                0.044159509562241114,
                0.011305370354193814,
                0.008475981923525033,
                0.007793233101369039,
                0.009215097798052584,
                0.015527090116431785,
                0.015622520087772773,
                0.02152104557618473,
                0.05970769870399139,
                0.07017938837683721,
                0.0853215013788691,
                0.13853240638295605,
                0.12218084648254933,
                0.10072556859947945,
                0.17781047933374078,
                0.23098424204333576,
                0.20663899302030794,
                0.22895057922438936,
                0.23757879941218318,
                0.1511213906737225,
                0.1512675619636503,
                0.23327232929435468,
                0.18053931531970252,
                0.10089543245941456,
                0.044556699126726745,
                0.034578481955970485,
                0.03976770901976641,
                0.02750824281064264,
                0.047913684659450596,
                0.06577364139327137,
                0.06279826909429743,
                0.10817455867574613,
                0.2597605818691981,
                0.36837143316088306,
                0.5,
                0.5220872302076234,
                0.4419994428806399,
                0.43976013739956205,
                0.512864049370071,
                0.29746541775280433,
                0.09546924277411241,
                0.06000549751093106,
                0.03698011735664111,
                0.026446756073641588,
                0.06786221649160554,
                0.22488414240021792,
                0.2404684715324791,
                0.23644559946696417,
                0.213304877192373,
                0.1613585576081673,
                0.09229581534103692,
                0.0688898026135141,
                0.06172495381127472,
                0.07614490292625728,
                0.2035564962234361,
                0.3657727704934247,
                0.37744867801864135,
                0.21656937159244066,
                0.16545551240983028,
                0.21181228683852504,
                0.1574575490639862,
                0.13357547909164866,
                0.07369879894788392,
                0.04199646632407105,
                0.06336315099962343,
                0.09785064803474823,
                0.06981280150749906,
                0.0290470088810741,
                0.03474515990842728,
                0.06457319349878732,
                0.0642043984508884,
                0.07672446971808708,
                0.046703705419700925,
                0.031536020661004624,
                0.029866240286263116,
                0.034517200727089956,
                0.034821487160423964,
                0.035718040614736775,
                0.04651921899456644,
                0.03816852496267922,
                0.02904779569046946,
                0.00749518682438215,
                0.0055700749528967905,
                0.008717689824680061,
                0.00860034160968755,
                0.013347979174277972,
                0.026491692756503395,
                0.03759535088013732,
                0.06071688646286718,
                0.04923779771495545,
                0.04761610480498522,
                0.017372887204363373,
                0.009598828187247811,
                0.013739932095794244,
                0.00833874399747027,
                0.009953049588100105,
                0.014792118535309418,
                0.007217212398847152,
                0.006811874616085049,
                0.007250866712373574,
                0.003583244768754944,
                0.0025283456351138773,
                0.0023892343030514386,
                0.004949314643634823,
                0.008488601863917438,
                0.009663988232012189,
                0.025517702957347604,
                0.06601202260557233,
                0.05404231453164195,
                0.0257621386651622,
                0.02561075622065229,
                0.01875068761633835,
                0.01005481460202971,
                0.004970940478301071,
                0.0026797990630718633,
                0.007276822845404872,
                0.030355228293052657,
                0.015686758420403794,
                0.006814739483302198,
                0.014556993278249447,
                0.025878340117737937,
                0.030598261893861986,
                0.06464697719339017,
                0.09891896691602232,
                0.09960467174597645,
                0.14411436849863243,
                0.1863738342703371,
                0.13540599317143917,
                0.11504242151176206,
                0.1549239099394507,
                0.08740714405881182,
                0.02531777593174929,
                0.02323704196210863,
                0.01880107981189603,
                0.01460068927869722,
                0.02690231657735411,
                0.06393972864379771,
                0.07371840676964408,
                0.06865156547296647,
                0.11557802224513163,
                0.24239486212996075,
                0.19954017328491067,
                0.14758122662734457,
                0.22859146225546717,
                0.14614551882967264,
                0.05546281296476794,
                0.06405807692574642,
                0.048708151884946344,
                0.02071195839540823,
                0.024894225258246108,
                0.034797455917229395,
                0.029992266386134326,
                0.06124028536343609,
                0.12508426155804622,
                0.10322789512217692,
                0.08020740157283981,
                0.07929490238361428,
                0.03414779922288097,
                0.014270774976579774,
                0.02010414540308071,
                0.04903016820164798,
                0.08219853453449014,
                0.1698198542281646,
                0.3176055840470973,
                0.31020619819435524,
                0.1777551311489039,
                0.13447123769769453,
                0.18618452580489236,
                0.16869349397508046,
                0.13930139682192996,
                0.06416381060413162,
                0.04293629080977743,
                0.04380577009053326,
                0.04124170258987669,
                0.0374436934557565,
                0.021477326950364663,
                0.025440609902612574,
                0.037619438346734695,
                0.022764004237596606,
                0.023651175325239856,
                0.016455934399457552,
                0.007995785498890106,
                0.006819671188061829,
                0.009763353805053457,
                0.011453018612818364,
                0.020512422511400962,
                0.03311684142971736,
                0.04345760132755927,
                0.04481702545914194,
                0.02611458477485704,
                0.023903285110547998
            ]
        }
    ],
    "creation_date": "2017-11-27T08:28:52.504615Z",
    "email": "email@domain.it"
}
